Netflix titles - Roy Blogdown
…
head(netflix_titles$date_added)

## [1] "2020-08-14" "2016-12-23" "2018-12-20" "2017-11-16" "2020-01-01"
## [6] "2017-07-01"

Date added

netflix_titles %>%
  filter(!is.na(date_added)) %>%
  arrange(date_added) %>%
  select(type, title, date_added)

## # A tibble: 7,777 x 3
##    type    title                       date_added
##    <chr>   <chr>                       <date>    
##  1 Movie   To and From New York        2008-01-01
##  2 TV Show Dinner for Five             2008-02-04
##  3 Movie   Just Another Love Story     2009-05-05
##  4 Movie   Splatter                    2009-11-18
##  5 Movie   Mad Ron's Prevues from Hell 2010-11-01
##  6 Movie   Even the Rain               2011-05-17
##  7 Movie   Joseph: King of Dreams      2011-09-27
##  8 Movie   A Stoning in Fulham County  2011-10-01
##  9 Movie   Adam: His Song Continues    2011-10-01
## 10 Movie   Hard Lessons                2011-10-01
## # ... with 7,767 more rows
…
netflix_titles %>%
  filter(!is.na(country)) %>%
  filter(type == "Movie") %>%
  group_by(country) %>%
  summarize_titles()

## # A tibble: 590 x 4
##    country            n median_duration median_year
##    <chr>          <int>           <dbl>       <dbl>
##  1 United States   1850             91        2016 
##  2 India            852            127        2014.
##  3 United Kingdom   193             90        2016 
##  4 Canada           118             89        2017 
##  5 Egypt             89            101        2012 
##  6 Spain             89             99        2018 
##  7 Turkey            73            104        2015 
##  8 Philippines       70            112.       2016 
##  9 France            69             95        2017 
## 10 Japan             69             98        2016 
## # ... with 580 more rows

netflix_titles %>%
  filter(rating %in% c("R", "TV-MA")) %>%
  count(country, sort = TRUE)

## # A tibble: 399 x 2
##    country            n
##    <chr>          <int>
##  1 United States   1244
##  2 India            230
##  3 United Kingdom   199
##  4 <NA>             161
##  5 Spain            111
##  6 South Korea       83
##  7 Japan             82
##  8 France            77
##  9 Canada            76
## 10 Mexico            73
## # ... with 389 more rows
…
