Market Basket Analysis - Roy Blogdown
…
dim(basket)

## [1] 14963     1

basket <- basket %>% 
  separate(col = items, sep=",",into = c(paste(seq(1:11))))

#colnames(basket) <- NULL
basket

## # A tibble: 14,963 x 11
##    `1`      `2`        `3`       `4`   `5`   `6`   `7`   `8`   `9`   `10`  `11` 
##    <chr>    <chr>      <chr>     <chr> <chr> <chr> <chr> <chr> <chr> <chr> <chr>
##  1 sausage  whole milk semi-fin~ yogu~ <NA>  <NA>  <NA>  <NA>  <NA>  <NA>  <NA> 
##  2 whole m~ pastry     salty sn~ <NA>  <NA>  <NA>  <NA>  <NA>  <NA>  <NA>  <NA> 
##  3 canned ~ misc. bev~ <NA>      <NA>  <NA>  <NA>  <NA>  <NA>  <NA>  <NA>  <NA> 
##  4 sausage  hygiene a~ <NA>      <NA>  <NA>  <NA>  <NA>  <NA>  <NA>  <NA>  <NA> 
##  5 soda     pickled v~ <NA>      <NA>  <NA>  <NA>  <NA>  <NA>  <NA>  <NA>  <NA> 
##  6 frankfu~ curd       <NA>      <NA>  <NA>  <NA>  <NA>  <NA>  <NA>  <NA>  <NA> 
##  7 sausage  whole milk rolls/bu~ <NA>  <NA>  <NA>  <NA>  <NA>  <NA>  <NA>  <NA> 
##  8 whole m~ soda       <NA>      <NA>  <NA>  <NA>  <NA>  <NA>  <NA>  <NA>  <NA> 
##  9 beef     white bre~ <NA>      <NA>  <NA>  <NA>  <NA>  <NA>  <NA>  <NA>  <NA> 
## 10 frankfu~ soda       whipped/~ <NA>  <NA>  <NA>  <NA>  <NA>  <NA>  <NA>  <NA> 
## # ... with 14,953 more rows
…
