…
g <- cbind(predictions = hard_ann_results, hard_ann) %>% 
  mutate(
    predictions = predictions * (max(hard_$hardness) - min(hard_$hardness)) + min(hard_$hardness),
    hardness = hardness * (max(hard_$hardness) - min(hard_$hardness)) + min(hard_$hardness),
    Al = Al * (max(hard_$Al) - min(hard_$Al)) + min(hard_$Al),
    Co = Co * (max(hard_$Co) - min(hard_$Co)) + min(hard_$Co),
    Cr = Cr * (max(hard_$Cr) - min(hard_$Cr)) + min(hard_$Cr),
    Cu = Cu * (max(hard_$Cu) - min(hard_$Cu)) + min(hard_$Cu),
    Fe = Fe * (max(hard_$Fe) - min(hard_$Fe)) + min(hard_$Fe),
    Ni = Ni * (max(hard_$Ni) - min(hard_$Ni)) + min(hard_$Ni)
  )

hard_ %>% arrange(desc(hardness))

## # A tibble: 36 x 7
##       Al    Co    Cr    Cu    Fe    Ni hardness
##    <dbl> <dbl> <dbl> <dbl> <dbl> <dbl>    <dbl>
##  1  40    13.3   6.7  13.3  20     6.7      768
##  2  43     6    33     6     6     6        764
##  3  37.5  12.5  12.5  12.5  12.5  12.5      735
##  4  42.9  14.3  14.3   7.1   7.1  14.3      720
##  5  46.2  15.4   7.7   7.7  15.4   7.7      702
##  6  42.9  21.4   7.1   7.1   7.1  14.3      701
##  7  42.9   7.1  14.3   7.1  14.3  14.3      694
##  8  35.9  12.8  12.8  12.8  12.8  12.8      655
##  9  33.3  13.3  13.3  13.3  13.3  13.3      625
## 10  30.8  15.4  15.4   7.7  15.4  15.4      609
## # ... with 26 more rows
…
