Coronavirus - Roy Blogdown
…
covid %>% 
  filter(country == toString("United States")) %>%
    rename("Deaths" = "deaths","Active cases rate" = "cases_rate") %>% 
  full_join(critical_dates,by="date") %>% 
  pivot_longer(cols = c("Active cases rate",Deaths),names_to = "name01", values_to = "value")

## # A tibble: 582 x 24
##    date       day.x month.x year.x cases.x country.x geoId.x code.x
##    <date>     <int>   <int>  <int>   <int> <chr>     <chr>   <chr> 
##  1 2020-08-02     2       8   2020   58407 United S~ US      USA   
##  2 2020-08-02     2       8   2020   58407 United S~ US      USA   
##  3 2020-08-01     1       8   2020   67023 United S~ US      USA   
##  4 2020-08-01     1       8   2020   67023 United S~ US      USA   
##  5 2020-07-31    31       7   2020   68032 United S~ US      USA   
##  6 2020-07-31    31       7   2020   68032 United S~ US      USA   
##  7 2020-07-30    30       7   2020   74985 United S~ US      USA   
##  8 2020-07-30    30       7   2020   74985 United S~ US      USA   
##  9 2020-07-29    29       7   2020   61734 United S~ US      USA   
## 10 2020-07-29    29       7   2020   61734 United S~ US      USA   
## # ... with 572 more rows, and 16 more variables: population2019.x <int>,
## #   continent.x <chr>, country.y <chr>, label <chr>, day.y <int>,
## #   month.y <int>, year.y <int>, cases.y <int>, deaths <int>, geoId.y <chr>,
## #   code.y <chr>, population2019.y <int>, continent.y <chr>, cases_rate <dbl>,
## #   name01 <chr>, value <dbl>
…
