…
## # A tibble: 6 x 1
##   items                                        
##   <chr>                                        
## 1 sausage,whole milk,semi-finished bread,yogurt
## 2 whole milk,pastry,salty snack                
## 3 canned beer,misc. beverages                  
## 4 sausage,hygiene articles                     
## 5 soda,pickled vegetables                      
## 6 frankfurter,curd

basket %>% 
  count(items)

## # A tibble: 9,111 x 2
##    items                                                                 n
##    <chr>                                                             <int>
##  1 abrasive cleaner,citrus fruit,whole milk,long life bakery product     1
##  2 abrasive cleaner,yogurt,frozen meals                                  1
##  3 artif. sweetener,bottled water,butter milk,butter,soda                1
##  4 artif. sweetener,curd                                                 1
##  5 artif. sweetener,herbs                                                1
##  6 artif. sweetener,salty snack                                          1
##  7 artif. sweetener,sugar                                                1
##  8 artif. sweetener,whole milk                                           1
##  9 baby cosmetics,bottled water                                          1
## 10 bags,other vegetables                                                 1
## # ... with 9,101 more rows
…
