…
year2020 <- read_csv("2019-2020.csv")
year2019 <- read_csv("2018-2019.csv")
year2018 <- read_csv("2017-2018.csv")
year2017 <- read_csv("2016-2017.csv")
year2016 <- read_csv("2015-2016.csv")

data <- year2020 %>% 
  union_all(year2019) %>% 
  union_all(year2018) %>% 
  union_all(year2017) %>% 
  union_all(year2016)
year2020

## # A tibble: 610 x 8
##    `Transaction Da~ `Transaction Ty~ `Sort Code` `Account Number`
##    <chr>            <chr>            <chr>                  <dbl>
##  1 23/09/2020       DEB              '77-85-26           42051368
##  2 23/09/2020       DEB              '77-85-26           42051368
##  3 22/09/2020       DEB              '77-85-26           42051368
##  4 22/09/2020       DEB              '77-85-26           42051368
##  5 22/09/2020       DEB              '77-85-26           42051368
##  6 21/09/2020       DEB              '77-85-26           42051368
##  7 21/09/2020       DEB              '77-85-26           42051368
##  8 21/09/2020       DEB              '77-85-26           42051368
##  9 21/09/2020       DEB              '77-85-26           42051368
## 10 21/09/2020       DEB              '77-85-26           42051368
## # ... with 600 more rows, and 4 more variables: `Transaction
## #   Description` <chr>, `Debit Amount` <dbl>, `Credit Amount` <dbl>,
## #   Balance <dbl>

colnames(data) <- c("date","type","code","number","description","dr","cr","balance")

data <- data %>%
  mutate(date = dmy(date),
         year_month = as.numeric(paste(year(date), month(date), sep = ""))) %>% 
  arrange(date)

data

## # A tibble: 2,438 x 9
##    date       type  code     number description      dr    cr balance year_month
##    <date>     <chr> <chr>     <dbl> <chr>         <dbl> <dbl>   <dbl>      <dbl>
##  1 2015-09-28 DEB   '77-85~  4.21e7 BANGOR UNIVE~  3      NA    2548.      20159
##  2 2015-09-28 DEB   '77-85~  4.21e7 CURRYS SUPER~ 23.0    NA    2551.      20159
##  3 2015-09-28 DEB   '77-85~  4.21e7 VODAFONE LTD  10      NA    2574.      20159
##  4 2015-09-28 BGC   '77-85~  4.21e7 STUDENT LOAN~ NA    1336.   2584.      20159
##  5 2015-09-28 BGC   '77-85~  4.21e7 STUDENT LOAN~ NA    1129    1248.      20159
##  6 2015-09-29 DEB   '77-85~  4.21e7 ASDA STORES ~  6.05   NA    2542.      20159
##  7 2015-09-30 DEB   '77-85~  4.21e7 W M MORRISON~  7.19   NA    2535.      20159
##  8 2015-10-02 DEB   '77-85~  4.21e7 W M MORRISON~ 13.0    NA    2522.     201510
##  9 2015-10-05 DEB   '77-85~  4.21e7 BANGOR UNIVE~  3.93   NA    2493.     201510
## 10 2015-10-05 DEB   '77-85~  4.21e7 VODAFONE LTD  20      NA    2497.     201510
## # ... with 2,428 more rows
…
data

## # A tibble: 2,438 x 9
##    date       type  code     number description      dr    cr balance year_month
##    <date>     <chr> <chr>     <dbl> <chr>         <dbl> <dbl>   <dbl>      <dbl>
##  1 2015-09-28 DEB   '77-85~  4.21e7 BANGOR UNIVE~  3      NA    2548.      20159
##  2 2015-09-28 DEB   '77-85~  4.21e7 CURRYS SUPER~ 23.0    NA    2551.      20159
##  3 2015-09-28 DEB   '77-85~  4.21e7 VODAFONE LTD  10      NA    2574.      20159
##  4 2015-09-28 BGC   '77-85~  4.21e7 STUDENT LOAN~ NA    1336.   2584.      20159
##  5 2015-09-28 BGC   '77-85~  4.21e7 STUDENT LOAN~ NA    1129    1248.      20159
##  6 2015-09-29 DEB   '77-85~  4.21e7 ASDA STORES ~  6.05   NA    2542.      20159
##  7 2015-09-30 DEB   '77-85~  4.21e7 W M MORRISON~  7.19   NA    2535.      20159
##  8 2015-10-02 DEB   '77-85~  4.21e7 W M MORRISON~ 13.0    NA    2522.     201510
##  9 2015-10-05 DEB   '77-85~  4.21e7 BANGOR UNIVE~  3.93   NA    2493.     201510
## 10 2015-10-05 DEB   '77-85~  4.21e7 VODAFONE LTD  20      NA    2497.     201510
## # ... with 2,428 more rows
…
